Base path: '/home/francesco/Unity/Hub/Editor/2020.3.22f1/Editor/Data', plugins path '/home/francesco/Unity/Hub/Editor/2020.3.22f1/Editor/Data/PlaybackEngines'
Cmd: initializeCompiler

Cmd: shutdown

Quitting shader compiler process
